{
    "registro": {
        "titulo": "Datos de estudiantes",
        "estudiante": [
            {
                "@_id": "1",
                "nombre": "Jefferson",
                "apellido": "Luna",
                "semestre": "5 semestre",
                "paralelo": "Paralelo \"A\"",
                "direccion": "La bramadora",
                "telefono": "09934426784",
                "correo": "palma@gmail.com"
            },
            {
                "@_id": "2",
                "nombre": "Mario",
                "apellido": "Castañeda",
                "semestre": "4 semestre",
                "paralelo": "Paralelo \"A\"",
                "direccion": "El carmen",
                "telefono": "0996534689",
                "correo": "plua@gmail.com"
            },
            {
                "@_id": "3",
                "nombre": "Enrique",
                "apellido": "Morales",
                "semestre": "3 semestre",
                "paralelo": "Paralelo \"A\"",
                "direccion": "Matapalo",
                "telefono": "09934426784",
                "correo": "parraga@gmail.com"
            },
            {
                "@_id": "4",
                "nombre": "Marcos",
                "apellido": "Cruzate",
                "semestre": "5 semestre",
                "paralelo": "Paralelo \"A\"",
                "direccion": "El porvenir",
                "telefono": "09934426784",
                "correo": "palma@gmail.com"
            },
            {
                "@_id": "5",
                "nombre": "Alejandro",
                "apellido": "Rojas",
                "semestre": "1 semestre",
                "paralelo": "Paralelo \"A\"",
                "direccion": "La esperanza",
                "telefono": "09934426784",
                "correo": "pinargote@gmail.com"
            },
            {
                "@_id": "6",
                "nombre": "Leon",
                "apellido": "Kenedy",
                "semestre": "6 semestre",
                "paralelo": "Paralelo \"A\"",
                "direccion": "El recio",
                "telefono": "0993543464",
                "correo": "perez@gmail.com"
            },
            {
                "@_id": "7",
                "nombre": "Christian",
                "apellido": "Jacuinde",
                "semestre": "2 semestre",
                "paralelo": "Paralelo \"A\"",
                "direccion": "La chiote",
                "telefono": "09934443563",
                "correo": "mena@gmail.com"
            },
            {
                "@_id": "8",
                "nombre": "Bryan",
                "apellido": "Quintin",
                "semestre": "7 semestre",
                "paralelo": "Paralelo \"A\"",
                "direccion": "La bramadora",
                "telefono": "09934426784",
                "correo": "arce@gmail.com"
            },
            {
                "@_id": "9",
                "nombre": "Marcelo",
                "apellido": "Hidrovo",
                "semestre": "8 semestre",
                "paralelo": "Paralelo \"A\"",
                "direccion": "La bramadora",
                "telefono": "09934426784",
                "correo": "hidrovo@gmail.com"
            },
            {
                "@_id": "10",
                "nombre": "Jimena",
                "apellido": "Lucas",
                "semestre": "10 semestre",
                "paralelo": "Paralelo \"A\"",
                "direccion": "La 14",
                "telefono": "099324141",
                "correo": "lucas@gmail.com"
            }
        ]
    }
}